ent ID;Age;Sex;Number of Siblings;Socioeconomic Status;Course 1 - Subject 1;Course 1 - Subject 2;Course 1 - Subject 3;Course 1 - Subject 4;Course 1 - Subject 5;Course 2 - Subject 1;Course 2 - Subject 2;Course 2 - Subject 3;Course 2 - Subject 4;Course 2 - Subject 5;Course 3 - Subject 1;Course 3 - Subject 2;Course 3 - Subject 3;Course 3 - Subject 4;Course 3 - Subject 5
1;16;F;2;Medium;75;82;85;80;90;80;85;88;87;90;77;83;85;81;88
2;16;F;2;Medium;75;82;85;80;90;80;85;88;87;90;77;83;85;81;88
3;17;M;2;Medium;75;82;85;80;90;80;85;88;87;90;77;83;85;81;88
4;15;M;1;High;80;78;86;82;75;85;90;82;87;80;83;85;88;81;90
5;15;M;1;High;80;78;86;82;75;85;90;82;87;80;83;85;88;81;90
6;16;F;1;High;80;78;86;82;75;85;90;82;87;80;83;85;88;81;90
7;17;F;0;Low;65;70;72;68;75;85;80;82;77;83;72;76;78;75;80
8;17;F;0;Low;65;70;72;68;75;85;80;82;77;83;72;76;78;75;80
9;15;M;0;Low;65;70;72;68;75;85;80;82;77;83;72;76;78;75;80
10;16;M;3;Medium;90;92;94;91;88;86;90;88;91;85;89;92;94;90;87
11;16;M;3;Medium;90;92;94;91;88;86;90;88;91;85;89;92;94;90;87
12;16;F;3;Medium;90;92;94;91;88;86;90;88;91;85;89;92;94;90;87
13;15;F;2;High;95;92;98;97;94;88;90;92;89;87;85;90;95;98;97
14;15;F;2;High;95;92;98;97;94;88;90;92;89;87;85;90;95;98;97
15;17;M;2;High;95;92;98;97;94;88;90;92;89;87;85;90;95;98;97
16;15;M;0;Medium;70;72;68;75;78;80;85;88;87;90;77;83;85;81;88
17;15;M;0;Medium;70;72;68;75;78;80;85;88;87;90;77;83;85;81;88
18;15;F;0;Medium;70;72;68;75;78;80;85;88;87;90;77;83;85;81;88
19;16;F;1;High;85;80;82;87;90;90;92;94;91;88;86;90;88;91;85
20;16;F;1;High;85;80;82;87;90;90;92;94;91;88;86;90;88;91;85
21;16;M;1;High;85;80;82;87;90;90;92;94;91;88;86;90;88;91;85
22;17;M;2;Low;75;85;80;82;77;83;72;76;78;75;80;85;88;90;92
23;15;F;2;Medium;85;82;88;89;90;80;85;90;87;88;77;83;85;81;88
24;16;F;0;Medium;90;92;94;91;88;88;89;92;94;90;87;95;98;97;94
25;16;M;1;Low;70;72;75;68;77;85;80;82;77;83;72;76;78;75;80
26;15;M;3;High;75;80;85;82;87;80;82;77;83;85;81;88;87;90;92
27;17;F;0;High;90;88;92;91;94;88;90;92;89;87;85;90;95;98;97
28;16;M;3;Medium;75;80;85;82;87;80;82;77;83;85;81;88;87;90;92
29;15;F;2;Low;78;80;72;75;68;90;92;94;91;88;86;90;88;91;85
30;16;M;1;Medium;80;85;88;82;85;88;85;90;87;89;77;83;85;81;88
31;15;F;0;High;92;94;90;87;88;90;92;94;91;88;86;90;88;91;85
32;16;F;1;High;92;94;90;87;88;90;92;94;91;88;86;90;88;91;85
33;17;M;0;Medium;80;82;77;83;85;88;85;90;87;89;77;83;85;81;88
34;15;F;2;Low;75;68;72;75;68;80;82;87;77;83;72;76;78;75;80
35;16;M;3;Medium;88;85;90;92;94;80;82;85;82;87;90;92;91;88;87
36;17;F;0;High;80;82;85;80;90;85;88;87;90;77;83;85;81;88;87
37;16;M;2;Medium;75;80;85;82;87;88;85;90;87;89;77;83;85;81;88
38;15;F;1;Low;80;82;77;83;85;80;85;88;87;90;77;83;85;81;88
39;17;M;0;High;92;94;90;87;88;80;82;85;82;87;90;92;91;88;87
40;16;F;2;Medium;75;80;85;82;87;85;88;87;90;77;83;85;81;88;87
41;15;M;1;Low;80;82;77;83;85;80;85;88;87;90;77;83;85;81;88
42;16;F;3;Medium;88;85;90;92;94;88;90;92;89;87;85;90;88;91;85
43;17;M;0;High;75;80;82;85;80;90;92;94;91;88;86;90;88;91;85
44;15;F;2;Low;85;80;77;83;85;80;85;88;87;90;77;83;85;81;88
45;17;F;0;Medium;80;82;85;80;90;85;88;87;90;77;83;85;81;88;87
46;15;M;2;Low;75;80;82;85;80;90;92;94;91;88;86;90;88;91;85
47;16;F;3;Medium;85;80;77;83;85;88;85;90;87;89;77;83;85;81;88
48;17;M;0;High;92;94;90;87;88;80;82;85;82;87;90;92;91;88;87
49;15;F;2;Low;80;82;77;83;85;80;85;88;87;90;77;83;85;81;88
50;16;M;1;Medium;88;85;90;92;94;85;90;87;89;77;83;85;81;88;85
51;17;F;0;High;75;80;85;82;87;88;85;90;87;89;77;83;85;81;88
52;16;F;3;Medium;80;82;77;83;85;80;85;88;87;90;77;83;85;81;87
53;17;M;0;High;92;94;90;87;88;85;90;87;89;77;83;85;81;88;85
54;15;F;2;Low;75;80;85;82;87;88;85;90;87;89;77;83;85;81;88
55;16;M;1;Medium;85;80;77;83;85;80;85;88;87;90;77;83;85;81;87
56;17;F;0;High;88;85;90;92;94;85;90;87;89;77;83;85;81;88;85
57;15;M;2;Low;75;80;82;85;80;90;92;94;91;88;86;90;88;91;88
58;16;F;3;Medium;80;82;85;80;90;85;88;87;90;77;83;85;81;88;87
;;;;;;;;;;;;;;;;;;;
