Fuente	Mensaje	Clasificación
Persona 1	¿Quién te has creído que eres? mamarracho, si te veo te vas a acordar...	Amenazante
Persona 2	Te voy a matar, no mereces vivir	Amenazante
Persona 3	Deberías avergonzarte de este trabajo.	Amenazante
Persona 4	Espero que esta sea tu última película.	Amenazante
Persona 5	Una ofensa al cine, inaceptable.	Amenazante
Persona 6	Si esto es arte, entonces el arte está muerto.	Amenazante
Persona 7	Deberías reconsiderar tu carrera.	Amenazante
Persona 8	Esto no se quedará así, verás las consecuencias.	Amenazante
Persona 9	Una burla al público, pagarás por esto.	Amenazante
Persona 10	Indignante y repulsivo, no lo olvidaré.	Amenazante
Persona 11	Esto es inexcusable, espero que fracases.	Amenazante
Persona 12	Una vergüenza para la industria.	Amenazante
Persona 13	Mala, muy mala, no me esperaba algo tan horroroso	Negativo
Persona 14	Un desastre, no pude terminar de verla, no aguanté hasta el final	Negativo
Persona 15	Aburrida y predecible, una decepción total.	negativo
Persona 16	Pésima edición y guion flojo.	negativo
Persona 17	Una pérdida de tiempo y dinero.	negativo
Persona 18	Actuaciones forzadas, no me convenció.	negativo
Persona 19	Olvidable, nada destacable.	negativo
Persona 20	Demasiado larga y sin sustancia.	negativo
Persona 21	Una trama confusa y mal ejecutada.	negativo
Persona 22	Falta de originalidad, muy cliché.	negativo
Persona 23	Efectos mediocres, historia sin sentido.	negativo
Persona 24	No cumplió con las expectativas.	negativo
Persona 25	Guión débil, dirección descuidada.	negativo
Persona 26	Una total falta de coherencia narrativa.	negativo
Persona 27	Enhorabuena, es una película excelente, me ha gustado mucho	Positivo
Persona 28	Me ha hecho recordar mi infancia, gracias	Positivo
Persona 29	Excelente, una gran película	Positivo
Persona 30	Increíble trabajo, la cinematografía es impresionante.	positivo
Persona 31	Una obra maestra, me emocionó profundamente.	positivo
Persona 32	La mejor película del año, sin duda.	positivo
Persona 33	Actuaciones sublimes, una experiencia inolvidable.	positivo
Persona 34	Una narrativa cautivadora, me mantuvo al borde de mi asiento.	positivo
Persona 35	Visualmente deslumbrante y emocionalmente poderosa.	positivo
Persona 36	Una joya del cine, felicitaciones al director.	positivo
Persona 37	Historia conmovedora, excelente dirección.	positivo
Persona 38	Una película que recomendaré a todos.	positivo
Persona 39	Un guion brillante, actuaciones estelares.	positivo
Persona 40	Una experiencia cinematográfica única.	positivo
Persona 41	Innovadora y emocionante, un gran logro.	positivo
Persona 42	Una película que redefine el género.	positivo
Persona 43	Magistralmente hecha, un verdadero placer visual.	positivo
Persona 44	Un viaje emocional inolvidable.	positivo
Persona 45	Una película que deja huella.	positivo
Persona 46	Arte en su máxima expresión.	positivo
Persona 47	Un triunfo en todos los aspectos.	positivo
Persona 48	Un relato profundo y significativo.	positivo
Persona 49	Una película que trasciende expectativas.	positivo
Persona 50	Un clásico instantáneo, bien hecho.	positivo
